25

10 9
6
h 1 7 w
t 3 1 w
f 3 7 n
r 5 5 n
f 1 2 e
f 2 5 s
11 2

17 21
10
t 0 19 w
t 2 10 n
t 14 5 w
h 4 0 w
t 6 13 s
f 2 16 s
h 15 5 n
h 1 20 w
h 1 16 n
f 7 5 e
19 2

13 12
2
t 11 11 w
r 3 9 n
22 2

16 15
8
r 9 2 s
h 14 2 s
r 8 8 s
t 9 5 w
h 13 8 s
f 14 7 e
r 14 13 w
f 9 11 e
21 2

5 16
10
h 4 1 w
t 1 0 w
f 1 7 w
r 0 13 n
f 2 3 n
r 1 6 n
r 1 1 e
f 0 8 n
h 0 14 w
r 3 2 e
26 3

12 21
11
f 5 2 e
r 3 8 w
r 8 8 n
r 10 18 s
t 10 16 w
h 9 0 n
h 7 2 s
t 2 3 s
t 2 17 s
r 10 7 w
f 2 0 n
10 1

11 18
3
h 8 2 n
f 9 1 e
r 10 9 e
21 4

17 10
1
r 8 4 n
10 1

8 10
7
t 1 6 w
f 0 2 s
r 4 5 s
f 4 4 e
h 3 5 w
r 5 0 s
r 7 0 w
22 3

11 9
6
r 8 8 n
f 2 1 s
f 1 0 w
t 9 1 e
r 10 7 s
t 6 8 w
19 3

15 13
10
f 3 0 e
f 11 3 w
t 4 3 s
h 6 11 s
r 5 0 e
t 12 12 n
f 7 5 e
f 3 9 n
f 1 1 e
t 2 0 n
9 4

20 8
11
h 7 3 s
f 17 3 w
r 3 5 n
f 4 1 s
r 9 6 s
f 12 0 e
t 18 4 n
f 8 0 s
f 5 0 s
h 3 2 s
h 15 7 n
26 4

17 19
1
h 8 18 e
24 2

3 2
3
r 0 0 s
t 1 0 w
r 2 1 e
10 4

1 17
9
h 0 13 s
t 0 16 e
h 0 15 n
r 0 1 n
f 0 11 w
h 0 6 w
r 0 2 e
t 0 16 n
t 0 10 e
22 2

17 6
3
h 13 2 e
t 15 5 n
f 4 5 e
11 1

12 10
9
h 11 2 n
f 5 2 w
h 1 3 w
r 11 1 n
r 7 4 n
h 3 2 w
f 10 2 e
h 0 2 s
t 5 1 e
13 4

10 1
2
f 8 0 s
h 6 0 w
27 3

5 20
5
h 4 17 s
t 0 5 n
r 0 14 s
t 0 11 w
r 4 3 n
16 1

15 7
3
f 3 0 s
t 7 1 w
t 8 1 s
9 4

10 10
11
f 8 7 s
r 5 7 w
h 9 6 s
f 2 0 w
t 0 8 s
t 9 0 w
h 6 3 w
r 6 1 e
r 6 0 n
h 4 9 w
r 6 6 s
12 3

8 24
9
t 5 12 n
f 5 7 n
t 4 7 e
f 1 21 n
h 6 10 w
t 0 19 n
t 7 18 e
h 0 23 w
t 3 7 s
16 2

24 24
1
f 21 18 s
17 2

13 17
3
t 6 6 s
h 0 7 e
h 5 13 n
19 3

1 22
3
f 0 10 e
t 0 13 n
t 0 12 e
14 3
