*** Darwin 5x9 ***
Turn = 0.
  012345678
0 r.hh.....
1 .........
2 .........
3 fh.......
4 ...t.....

Turn = 6.
  012345678
0 .rrh.....
1 .........
2 .........
3 f........
4 .h.t.....

*** Darwin 9x6 ***
Turn = 0.
  012345
0 h.....
1 ...ft.
2 ......
3 ......
4 ......
5 ......
6 ......
7 ......
8 ......

Turn = 3.
  012345
0 h.....
1 ...tt.
2 ......
3 ......
4 ......
5 ......
6 ......
7 ......
8 ......

Turn = 6.
  012345
0 h.....
1 ...tt.
2 ......
3 ......
4 ......
5 ......
6 ......
7 ......
8 ......

*** Darwin 7x7 ***
Turn = 0.
  0123456
0 .......
1 ....r..
2 ...f...
3 .......
4 .....rr
5 f......
6 .......

Turn = 3.
  0123456
0 .....r.
1 .......
2 ...f...
3 .......
4 .......
5 f......
6 .....rr

*** Darwin 5x7 ***
Turn = 0.
  0123456
0 .......
1 .......
2 t.h....
3 ..f....
4 .......

Turn = 1.
  0123456
0 .......
1 .......
2 th.....
3 ..f....
4 .......

Turn = 2.
  0123456
0 .......
1 .......
2 th.....
3 ..f....
4 .......

Turn = 3.
  0123456
0 .......
1 .......
2 th.....
3 ..f....
4 .......

Turn = 4.
  0123456
0 .......
1 .......
2 th.....
3 ..f....
4 .......

Turn = 5.
  0123456
0 .......
1 .......
2 tt.....
3 ..f....
4 .......

Turn = 6.
  0123456
0 .......
1 .......
2 tt.....
3 ..f....
4 .......

*** Darwin 9x8 ***
Turn = 0.
  01234567
0 ........
1 .t.....h
2 .f....r.
3 .f.....f
4 ........
5 .....h.h
6 ........
7 ........
8 ........

Turn = 7.
  01234567
0 .......r
1 .t......
2 .t.....h
3 .t.....f
4 ........
5 ........
6 ........
7 ........
8 .....h.h

*** Darwin 8x8 ***
Turn = 0.
  01234567
0 ........
1 r....r..
2 ........
3 ..f.r...
4 ...t....
5 ..h.....
6 ........
7 ........

Turn = 4.
  01234567
0 .r.r....
1 .....r..
2 ........
3 ..f.....
4 ..tt....
5 ........
6 ........
7 ........

Turn = 8.
  01234567
0 .r.....r
1 ........
2 ..r.....
3 ..t.....
4 ..tt....
5 ........
6 ........
7 ........

*** Darwin 8x6 ***
Turn = 0.
  012345
0 ...t..
1 ......
2 ......
3 ......
4 ..tt.h
5 ......
6 ......
7 .t..f.

Turn = 13.
  012345
0 ...t.h
1 ......
2 ......
3 ......
4 ..tt..
5 ......
6 ......
7 .t..f.

*** Darwin 7x6 ***
Turn = 0.
  012345
0 .....r
1 ......
2 ...f..
3 ....hr
4 ..f...
5 ......
6 ...h..

Turn = 11.
  012345
0 .....r
1 ......
2 ...f..
3 ...h..
4 ..f...
5 r.....
6 .....r

*** Darwin 7x5 ***
Turn = 0.
  01234
0 .t...
1 .....
2 f....
3 .....
4 .....
5 .....
6 r...h

Turn = 3.
  01234
0 .t...
1 .....
2 f....
3 .....
4 r....
5 .....
6 ....h

Turn = 6.
  01234
0 .t...
1 .....
2 rr...
3 .....
4 .....
5 .....
6 ....h

*** Darwin 9x6 ***
Turn = 0.
  012345
0 ......
1 ......
2 ......
3 ......
4 ......
5 r.....
6 ...t..
7 ......
8 ......

Turn = 3.
  012345
0 ......
1 ......
2 ......
3 r.....
4 ......
5 ......
6 ...t..
7 ......
8 ......

Turn = 6.
  012345
0 r.....
1 ......
2 ......
3 ......
4 ......
5 ......
6 ...t..
7 ......
8 ......

*** Darwin 7x6 ***
Turn = 0.
  012345
0 ......
1 t...h.
2 ....t.
3 t.h..t
4 ......
5 .....t
6 ......

Turn = 2.
  012345
0 ......
1 t.h...
2 ....t.
3 th...t
4 ......
5 .....t
6 ......

Turn = 4.
  012345
0 ......
1 tt....
2 ....t.
3 tt...t
4 ......
5 .....t
6 ......

Turn = 6.
  012345
0 ......
1 tt....
2 ....t.
3 tt...t
4 ......
5 .....t
6 ......

*** Darwin 8x7 ***
Turn = 0.
  0123456
0 ..t....
1 .t.....
2 ....rr.
3 .t.....
4 ....t..
5 ..h....
6 .....t.
7 .......

Turn = 2.
  0123456
0 ..t..r.
1 .t.....
2 ..r....
3 .th....
4 ....t..
5 .......
6 .....t.
7 .......

Turn = 4.
  0123456
0 ..t...r
1 .t.....
2 r......
3 .tt....
4 ....t..
5 .......
6 .....t.
7 .......

Turn = 6.
  0123456
0 ..t...r
1 rt.....
2 .......
3 .tt....
4 ....t..
5 .......
6 .....t.
7 .......

*** Darwin 5x7 ***
Turn = 0.
  0123456
0 .......
1 .f.....
2 ..r....
3 ....r.r
4 ..tr..r

Turn = 5.
  0123456
0 .......
1 .f.r...
2 ......r
3 r.r...r
4 r......

*** Darwin 6x9 ***
Turn = 0.
  012345678
0 ...tf..rr
1 .r...t...
2 .........
3 h........
4 .......r.
5 .........

Turn = 3.
  012345678
0 ...trr...
1 .....t...
2 ........r
3 h........
4 .r.......
5 ........r

Turn = 6.
  012345678
0 ...ttt...
1 .....t...
2 .........
3 h........
4 ........r
5 r......r.

*** Darwin 9x8 ***
Turn = 0.
  01234567
0 ........
1 h.......
2 ....t...
3 ....t...
4 ........
5 ..t.....
6 ........
7 ........
8 ........

Turn = 3.
  01234567
0 ........
1 ...h....
2 ....t...
3 ....t...
4 ........
5 ..t.....
6 ........
7 ........
8 ........

*** Darwin 9x8 ***
Turn = 0.
  01234567
0 ........
1 ........
2 ........
3 ........
4 ....f...
5 ........
6 ...r....
7 .....r..
8 .....t..

Turn = 3.
  01234567
0 ........
1 ........
2 ........
3 ........
4 ....fr..
5 ........
6 ........
7 ........
8 ...r.t..

Turn = 6.
  01234567
0 ........
1 .....r..
2 ........
3 ........
4 ....f...
5 ........
6 ........
7 ........
8 r....t..

Turn = 9.
  01234567
0 ......r.
1 ........
2 ........
3 ........
4 ....f...
5 ........
6 ........
7 ........
8 r....t..

*** Darwin 9x5 ***
Turn = 0.
  01234
0 .....
1 ...t.
2 .....
3 ....t
4 .....
5 ....h
6 .....
7 t....
8 ...r.

Turn = 1.
  01234
0 .....
1 ...t.
2 .....
3 ....t
4 ....h
5 .....
6 .....
7 t....
8 ..r..

Turn = 2.
  01234
0 .....
1 ...t.
2 .....
3 ....t
4 ....h
5 .....
6 .....
7 t....
8 .r...

Turn = 3.
  01234
0 .....
1 ...t.
2 .....
3 ....t
4 ....h
5 .....
6 .....
7 t....
8 r....

Turn = 4.
  01234
0 .....
1 ...t.
2 .....
3 ....t
4 ....h
5 .....
6 .....
7 t....
8 r....

Turn = 5.
  01234
0 .....
1 ...t.
2 .....
3 ....t
4 ....t
5 .....
6 .....
7 t....
8 t....

Turn = 6.
  01234
0 .....
1 ...t.
2 .....
3 ....t
4 ....t
5 .....
6 .....
7 t....
8 t....

Turn = 7.
  01234
0 .....
1 ...t.
2 .....
3 ....t
4 ....t
5 .....
6 .....
7 t....
8 t....

*** Darwin 8x5 ***
Turn = 0.
  01234
0 h....
1 .....
2 .....
3 .rr..
4 .t..r
5 ...r.
6 .....
7 ..h..

Turn = 1.
  01234
0 h....
1 .....
2 .....
3 .r...
4 .tr.r
5 ....r
6 ..h..
7 .....

Turn = 2.
  01234
0 h....
1 .....
2 .....
3 .r..r
4 .....
5 .rr.r
6 ..h..
7 .....

Turn = 3.
  01234
0 h....
1 .....
2 ....r
3 .....
4 .r...
5 ..r..
6 .rr.r
7 .....

Turn = 4.
  01234
0 h....
1 ....r
2 .....
3 .....
4 .....
5 .rr..
6 ...r.
7 .r..r

Turn = 5.
  01234
0 h...r
1 .....
2 .....
3 .....
4 .....
5 .r...
6 .r..r
7 .r..r

Turn = 6.
  01234
0 h...r
1 .....
2 .....
3 .....
4 .....
5 r....
6 .r..r
7 r...r

Turn = 7.
  01234
0 h..r.
1 .....
2 .....
3 .....
4 .....
5 r....
6 r...r
7 r...r

Turn = 8.
  01234
0 h.r..
1 .....
2 .....
3 .....
4 r....
5 .....
6 r...r
7 r...r

*** Darwin 9x8 ***
Turn = 0.
  01234567
0 ..h...f.
1 ........
2 ......r.
3 ........
4 h...h.t.
5 ........
6 ..r.....
7 ........
8 .t......

Turn = 8.
  01234567
0 ....r...
1 .....r..
2 r.......
3 ........
4 ......tr
5 ..r.....
6 ........
7 ........
8 .th.....

*** Darwin 9x8 ***
Turn = 0.
  01234567
0 ........
1 ........
2 ...h.h..
3 ........
4 .....f..
5 ...r....
6 ........
7 ..h.....
8 ..h.....

Turn = 2.
  01234567
0 ........
1 ........
2 .....h..
3 .....h..
4 .....f..
5 .r......
6 ........
7 ........
8 ..h.h...

Turn = 4.
  01234567
0 ........
1 ........
2 .......h
3 .....h..
4 .....f..
5 r.......
6 ........
7 ........
8 ..h...h.

Turn = 6.
  01234567
0 ........
1 ........
2 .......h
3 r....h..
4 .....f..
5 ........
6 ........
7 ........
8 ..h....h

Turn = 8.
  01234567
0 ........
1 r.......
2 .......h
3 .....h..
4 .....f..
5 ........
6 ........
7 ........
8 ..h....h

Turn = 10.
  01234567
0 r.......
1 ........
2 .......h
3 .....h..
4 .....f..
5 ........
6 ........
7 ........
8 ..h....h

*** Darwin 6x5 ***
Turn = 0.
  01234
0 .....
1 h....
2 .....
3 f....
4 ....h
5 ....r

Turn = 1.
  01234
0 .....
1 .....
2 h....
3 f....
4 ...h.
5 ....r

Turn = 2.
  01234
0 .....
1 .....
2 h....
3 f....
4 ..h..
5 ....r

Turn = 3.
  01234
0 .....
1 .....
2 h....
3 f....
4 .h...
5 ....r

Turn = 4.
  01234
0 .....
1 .....
2 h....
3 f....
4 h....
5 ....r

Turn = 5.
  01234
0 .....
1 .....
2 h....
3 f....
4 h....
5 ...r.

Turn = 6.
  01234
0 .....
1 .....
2 h....
3 f....
4 h....
5 ..r..

Turn = 7.
  01234
0 .....
1 .....
2 h....
3 f....
4 h....
5 .r...

Turn = 8.
  01234
0 .....
1 .....
2 h....
3 f....
4 h....
5 r....

Turn = 9.
  01234
0 .....
1 .....
2 h....
3 f....
4 h....
5 r....

*** Darwin 6x6 ***
Turn = 0.
  012345
0 f.....
1 ......
2 .....r
3 ....fh
4 .f.t.r
5 ....h.

Turn = 2.
  012345
0 f.....
1 ......
2 .....r
3 ....f.
4 .f.rrr
5 ....h.

Turn = 4.
  012345
0 f.....
1 ......
2 ......
3 ....fr
4 .fr...
5 ...rhr

Turn = 6.
  012345
0 f.....
1 ......
2 ......
3 ....f.
4 .r...r
5 .rr.rr

*** Darwin 8x7 ***
Turn = 0.
  0123456
0 .......
1 .......
2 .......
3 ...t...
4 .....f.
5 ...thh.
6 .....t.
7 ..f.f..

Turn = 7.
  0123456
0 .......
1 .......
2 .......
3 ...t...
4 .....t.
5 ...t.t.
6 ....tt.
7 ..f.t..

*** Darwin 8x7 ***
Turn = 0.
  0123456
0 .......
1 ......t
2 .......
3 .......
4 ....thf
5 ..f...h
6 ....t..
7 .......

Turn = 3.
  0123456
0 .......
1 .....ht
2 .......
3 .......
4 ....t.f
5 ..f...h
6 ....t..
7 .......

Turn = 6.
  0123456
0 .....h.
1 ......t
2 .......
3 .......
4 ....t.f
5 ..f...h
6 ....t..
7 .......

*** Darwin 8x6 ***
Turn = 0.
  012345
0 ..r...
1 ......
2 f.....
3 ......
4 .r....
5 ...h..
6 tf....
7 ...f..

Turn = 4.
  012345
0 .....r
1 ......
2 f.....
3 ......
4 ......
5 ......
6 tt.h..
7 .t.f..
